module github.com/SAP/cloud-mta-build-tool

go 1.13

require (
	github.com/SAP/cloud-mta v0.1.10
	github.com/deckarep/golang-set v1.7.1
	github.com/hpcloud/tail v1.0.1-0.20180514194441-a1dbeea552b7 // indirect
	github.com/json-iterator/go v1.1.8 // indirect
	github.com/kballard/go-shellquote v0.0.0-20180428030007-95032a82bc51
	github.com/mattn/go-colorable v0.1.4 // indirect
	github.com/mattn/go-isatty v0.0.10 // indirect
	github.com/mgutz/ansi v0.0.0-20170206155736-9520e82c474b // indirect
	github.com/onsi/ginkgo v1.15.0
	github.com/onsi/gomega v1.10.4
	github.com/pelletier/go-toml v1.6.0 // indirect
	github.com/pkg/errors v0.9.1
	github.com/sirupsen/logrus v1.7.0
	github.com/smallfish/simpleyaml v0.0.0-20170911015856-a32031077861 // indirect
	github.com/spf13/afero v1.2.2 // indirect
	github.com/spf13/cobra v0.0.7
	github.com/spf13/jwalterweatherman v1.1.0 // indirect
	github.com/spf13/pflag v1.0.5 // indirect
	github.com/spf13/viper v1.7.1
	github.com/x-cray/logrus-prefixed-formatter v0.5.2
	gopkg.in/fsnotify/fsnotify.v1 v1.4.7 // indirect
	gopkg.in/yaml.v2 v2.4.0
	gopkg.in/yaml.v3 v3.0.0-20191120175047-4206685974f2 // indirect
)
